Get UNCTAD data — get_unctad • fsp
…
    See also

    Other UNCTAD:
acquire_unctad(),
get_unctad_metadata(),
url_unctad()

    Examples

a <- system.file("extdata", "unctad-example.csv.7z", package = "fsp")
a
#> [1] "/home/runner/work/_temp/Library/fsp/extdata/unctad-example.csv.7z"
get_unctad(a)
#> # A tibble: 18,910 × 6
#>    date       commodity commodity_label                   prices prices_footnote
#>    <date>     <chr>     <chr>                              <dbl> <chr>          
#>  1 1995-01-01 IN0001.20 All groups                         NA    NA             
#>  2 1995-01-01 IN0001.01 All food                           NA    NA             
#>  3 1995-01-01 IN0001.02 Food                               NA    NA             
#>  4 1995-01-01 080300.01 Bananas, Central and South Ameri…   0.35 NA             
#>  5 1995-01-01 020100.01 Beef, Australia/New Zealand, fro…   2.12 NA             
#>  6 1995-01-01 100500.01 Maize, Argentina, Rosario, Up Ri… 105.   NA             
#>  7 1995-01-01 100500.02 Maize, United States, n° 3 yello… 109.   NA             
#>  8 1995-01-01 100600.01 Rice, Thailand, white milled, 5%… 277.   NA             
#>  9 1995-01-01 030212.01 Salmon, fresh, fish-farm bred, e…   4.81 NA             
#> 10 1995-01-01 030613.01 Shrimps, brown, no. 1, shell-on,…  13.4  NA             
#> # ℹ 18,900 more rows
#> # ℹ 1 more variable: prices_missing_value <chr>
…
